<svg xmlns="http://www.w3.org/2000/svg" xmlns:xlink="http://www.w3.org/1999/xlink" viewBox="2121 0 61 106">
  <defs>
    <style>
      .cls-1 {
        clip-path: url(#clip-Brace-shape-02);
      }

      .cls-2 {
        fill: none;
        stroke: #f0f0f6;
        stroke-width: 2px;
      }
    </style>
    <clipPath id="clip-Brace-shape-02">
      <rect x="2121" width="61" height="106"/>
    </clipPath>
  </defs>
  <g id="Brace-shape-02" class="cls-1">
    <line id="Line_174" data-name="Line 174" class="cls-2" x2="61" y2="106" transform="translate(2121.5)"/>
  </g>
</svg>
