<svg xmlns="http://www.w3.org/2000/svg" width="61" height="56" viewBox="0 0 61 56">
  <g id="Group_31150" data-name="Group 31150" transform="translate(-244.054 -1648.422)">
    <g id="Rectangle_8944" data-name="Rectangle 8944" transform="translate(244.054 1648.422)" fill="none" stroke="#fff" stroke-width="1" stroke-dasharray="2 2">
      <rect width="61" height="56" stroke="none"/>
      <rect x="0.5" y="0.5" width="60" height="55" fill="none"/>
    </g>
    <path id="Path_5758" data-name="Path 5758" d="M36.921,36.8,31.834,22.067a.642.642,0,0,0-.623-.427H27.273a4.266,4.266,0,1,0-6.99-3.282,4.243,4.243,0,0,0,1.542,3.282H17.855a.673.673,0,0,0-.623.427L12.112,36.8a.66.66,0,0,0,.623.886H36.3A.669.669,0,0,0,36.921,36.8Zm-12.4-20.247a1.8,1.8,0,0,1,1.8,1.8,1.772,1.772,0,0,1-1.8,1.772,1.8,1.8,0,0,1-1.8-1.8A1.772,1.772,0,0,1,24.516,16.554Z" transform="translate(249.984 1650.333)" fill="#0073af"/>
  </g>
</svg>
