<svg xmlns="http://www.w3.org/2000/svg" width="12.687" height="18.17" viewBox="0 0 12.687 18.17">
  <g id="Group_31168" data-name="Group 31168" transform="translate(0 0)">
    <path id="Path_5768" data-name="Path 5768" d="M12.543,15.479,10.322,12.83A1.466,1.466,0,0,0,8.428,12.4l-.741.4a1.079,1.079,0,0,0-.567.568.717.717,0,0,1-1.185.211A21.941,21.941,0,0,1,3.522,9.854a9.424,9.424,0,0,1-.878-2.681c-.061-.363.126-.877.861-.841A1.078,1.078,0,0,0,4.3,6.2l.754-.373a1.464,1.464,0,0,0,.753-1.79L4.948.692A1.259,1.259,0,0,0,3.257.135L1.647.945a1.747,1.747,0,0,0-.707.761C-.417,4-.338,7.617,1.393,10.985c.064.126,2.715,6.578,7.993,7.16a1.734,1.734,0,0,0,1.029-.131l1.6-.836A1.259,1.259,0,0,0,12.543,15.479Z" transform="translate(0 0)" fill="#0073af"/>
  </g>
</svg>
