<svg xmlns="http://www.w3.org/2000/svg" width="9.414" height="13.877" viewBox="0 0 9.414 13.877">
  <path id="Path_6756" data-name="Path 6756" d="M21.278,14.963,27.51,8.732,21.278,2.5,19.51,4.268l4.464,4.463L19.51,13.195Z" transform="translate(-18.803 -1.793)" fill="#01202b" stroke="#fff" stroke-width="1"/>
</svg>
