<svg xmlns="http://www.w3.org/2000/svg" xmlns:xlink="http://www.w3.org/1999/xlink" viewBox="0 0 262 68">
  <defs>
    <style>
      .cls-1 {
        clip-path: url(#clip-Web_1920_1);
      }

      .cls-2 {
        fill: #b4b4be;
        font-size: 18px;
        font-family: Roboto-Regular, Roboto;
      }

      .cls-3 {
        fill: #686868;
        stroke: #f0f6fa;
      }
    </style>
    <clipPath id="clip-Web_1920_1">
      <rect width="262" height="68"/>
    </clipPath>
  </defs>
  <g id="Web_1920_1" data-name="Web 1920 – 1" class="cls-1">
    <g id="Group_1" data-name="Group 1" transform="translate(-769 -225.709)">
      <text id="L" class="cls-2" transform="translate(769 269)"><tspan x="0" y="0">L</tspan></text>
      <text id="R" class="cls-2" transform="translate(1019 269)"><tspan x="0" y="0">R</tspan></text>
      <g id="Group_683" data-name="Group 683" transform="translate(-747 -538.884)">
        <path id="Path_7" data-name="Path 7" class="cls-3" d="M1555,827.735l56.418,6.068,124.746-32.545-40.745-2.758Z" transform="translate(0 -1.919)"/>
        <path id="Path_6" data-name="Path 6" class="cls-3" d="M1580.75,806.564v29.419l120.028-31.028V780.5Z" transform="translate(6.534 -7.132)"/>
        <path id="Path_5" data-name="Path 5" class="cls-3" d="M1555,795.432l55.164,6.619,123.493-32.821-57.394-4.637Z" transform="translate(0 0)"/>
      </g>
    </g>
  </g>
</svg>
